##### low level animation loop

setlistener("/sim/signals/fdm-initialized", func {

settimer(low_loop, 1);
});

var low_loop = func {

var calt = getprop("position/altitude-agl-ft");
var cspd = getprop("velocities/groundspeed-kt");
var burn0 = getprop("controls/engines/engine[0]/afterburner");
#var burn1 = getprop("controls/engines/engine[1]/afterburner");

if((calt <= 300) and (cspd >= 450)) {
setprop("controls/state/low_level", 1);
} elsif ( (calt <= 300) and (burn0 == 1) ) {
setprop("controls/state/low_level", 1);
  } else {
setprop("controls/state/low_level", 0);
    }

settimer(low_loop, 1);
}

#### low level models position
#var low_model = func {
#var state = getprop("controls/state/low_level");
#if(state == 1) {

#var long = getprop("position/longitude-deg");
#var lat = getprop("position/latitude-deg");

#geo.put_model("Aircraft/BAE-Hawk/Models/Effects/aircraft_wash.xml", lat, long);

#}
#settimer(low_model, 1);
#}
